…
    ## # A tibble: 8 × 4
    ##   type            match     n   pct
    ##   <chr>           <lgl> <int> <dbl>
    ## 1 ft-abstract?    FALSE   160  3.58
    ## 2 ft-available    FALSE  2466 55.2 
    ## 3 ft-inaccessible FALSE    11  0.25
    ## 4 ft-none         FALSE    12  0.27
    ## 5 ft-abstract?    TRUE      9  0.2 
    ## 6 ft-available    TRUE   1812 40.5 
    ## 7 title           FALSE  4464 99.9 
    ## 8 title           TRUE      6  0.13

The breakdown of terms identified is as follows:

    ## # A tibble: 340 × 3
    ##    std_match                             n   pct
    ##    <chr>                             <int> <dbl>
    ##  1 "rett syndrome "                    782 36   
    ##  2 "round trip time "                  424 19.5 
    ##  3 "reverse transcriptase template "    59  2.72
    ##  4 "reverse transcription template "    57  2.62
    ##  5 "rett syndromerett syndrome "        51  2.35
    ##  6 "radiation therapist "               32  1.47
    ##  7 "referral to treatment "             27  1.24
    ##  8 "rt template "                       21  0.97
    ##  9 "radiation therapists "              20  0.92
    ## 10 "root to tip "                       19  0.87
    ## # ℹ 330 more rows
…
